{
    "body": "{\"name\":\"Tia\",\"email\":\"Tia@gmail.com\",\"number\":\"+27834990133\"}",
    "requestContext": {
      "identity": {
        "cognitoIdentityId": "eu-central-1:84f87dd7-8efc-4e44-ab94-89a2229dbd31"
      }
    }
}